{
  "$schema": "https://developer.microsoft.com/json-schemas/spfx-build/config.2.0.schema.json",
  "version": "2.0",
  "bundles": {
    "message-web-part": {
      "components": [
        {
          "entrypoint": "./lib/webparts/message/MessageWebPart.js",
          "manifest": "./src/webparts/message/MessageWebPart.manifest.json"
        }
      ]
    }
  },
  "externals": {},
  "localizedResources": {
    "MessageWebPartStrings": "lib/webparts/message/loc/{locale}.js"
  }
}
