{
  "$schema": "https://developer.microsoft.com/json-schemas/spfx-build/package-solution.schema.json",
  "solution": {
    "name": "message-web-part-client-side-solution",
    "id": "7a841e13-13e9-4c41-97b7-aecc1ae84e58",
    "version": "1.0.0.0",
    "includeClientSideAssets": false,
    "isDomainIsolated": false,
    "developer": {
      "name": "",
      "websiteUrl": "",
      "privacyUrl": "",
      "termsOfUseUrl": "",
      "mpnId": ""
    }
  },
  "paths": {
    "zippedPackage": "solution/message-web-part.sppkg"
  }
}
